<?xml version="1.0" encoding="utf-8"?>
<!-- Generator: Adobe Illustrator 22.0.1, SVG Export Plug-In . SVG Version: 6.00 Build 0)  -->
<svg version="1.1" id="Layer_1" xmlns="http://www.w3.org/2000/svg" xmlns:xlink="http://www.w3.org/1999/xlink" x="0px" y="0px"
	 viewBox="0 0 104.4 65.4" style="enable-background:new 0 0 104.4 65.4;" xml:space="preserve">
<style type="text/css">
	.st0{fill:#FFFFFF;}
</style>
<g>
	<path class="st0" d="M97.9,29.6c-1.5-1.9-3.7-3.1-6.6-3.4c-2.7-0.3-5.6,0.9-8.1,2.2c-2.5,1.4-4.8,3.3-6.6,4.9
		c-1.2,1-2.5,2.4-3.8,3.7c-0.1-0.4-0.2-0.8-0.3-1.1c-0.9-3-1.8-6-3-9.1c-0.6-1.5-1.3-3.1-2.1-4.5c-0.8-1.4-1.8-2.8-2.8-4
		c-0.9-1.1-2.2-1.5-3.6-1.6c0,0,0,0,0.1,0h-0.2c-1-0.1-1.9-0.1-2.9,0c-0.2,0-0.5,0-0.7,0.1l-0.1,0c0,0,0,0,0,0
		c-2.1,0.4-3.5,2.3-4.8,3.6l-0.2,4c2.8,4,4.4,8.9,6,13.2c1.4,4.2,3.2,5.8,6.6,6.2c0.3,0,0.6,0,1,0l0,0l0,0c1.9-0.1,3.8-0.8,5.5-1.9
		c1.1,2.6,2.6,4.5,4.6,5.2c2,0.6,3.8,1.3,6,1.1c2.5-0.3,0.5-1.5-2.5-1.2l7.8-17.7c2-1,4.1-1.7,6.4-1.7c3.2,2.9,3.6,8.2,5,11.7
		c0,0-0.5-1.7-0.1-0.8l0.1,0.8l2.3-3.3C100.3,33.8,99.4,31.5,97.9,29.6 M56.5,24.8c-0.6-1-1.3-2-2.1-2.8c0.9-1,1.7-2.1,2.7-3
		L56.5,24.8z M60.1,32.6c-0.7-2-1.5-4-2.5-5.9l0.8-8.9c0.2-0.2,0.5-0.3,0.8-0.4c1,0.5,1.9,1.2,2.7,2.1C62,19.5,60.1,32.6,60.1,32.6z
		 M61.2,36.3l2.2-15c0.4,0.6,0.7,1.2,1.1,1.8c0.6,1,1,2.1,1.5,3.2L63,41.1C62.3,39.7,61.7,38,61.2,36.3 M65,43.4
		c-0.3-0.2-0.5-0.4-0.7-0.6L67,29.2c0.4,1.2,0.7,2.3,1.1,3.2c0.3,0.8,0.6,1.7,0.9,2.6l-1.9,7.4C66.4,42.9,65.8,43.2,65,43.4
		 M70.3,39.8c-0.6,0.6-1.2,1.1-1.8,1.6l1.1-4.3c0.3,0.8,0.6,1.7,0.9,2.5L70.3,39.8 M73.6,40.4c1.3-1,2.6-2.2,3.9-3.4l-2.7,7.2
		C74.3,43.2,73.9,41.8,73.6,40.4 M77.7,47.1c-0.9-0.4-1.6-0.9-2.1-1.5l0.1,0l3.9-10.6c1.6-1.5,3.4-2.9,5.2-4.1
		C84.8,30.9,77.7,47.1,77.7,47.1z"/>
	<path class="st0" d="M52.4,23.2l0.1-2.7c-1.8-1.6-3.7-3.1-5.9-4c-2.2-0.8-4.6-0.7-7.2,0.4c-2.4,1.1-4.3,3.5-5.7,5.9
		c-1.5,2.5-2.5,5.2-3.4,7.5c-0.6,1.5-1,3.3-1.5,5.1c-0.3-0.3-0.5-0.6-0.8-0.8c-2.2-2.2-4.5-4.4-7-6.6c-2.5-2.1-5.2-4.1-8.3-5.2
		c-1.3-0.5-2.6-0.3-3.9,0.2c0,0,0,0,0,0c0,0-0.1,0-0.1,0.1c-0.9,0.4-1.8,0.9-2.6,1.4c-0.2,0.1-0.4,0.3-0.6,0.4l-0.1,0c0,0,0,0,0,0
		c-1.6,1.3-2.1,3.7-2.5,5.4L4.7,34c4.4,2.3,8,5.8,11.5,8.9c2.7,2.5,4.8,3.3,7.3,2.8c0,0,0,0,0,0l0,0c0.5-0.1,1-0.3,1.4-0.4
		c0.3-0.1,0.6-0.3,0.9-0.4c0,0,0,0,0.1,0c0,0,0,0,0,0c1.7-1,3-2.5,4-4.3c2.3,1.7,4.5,2.7,6.7,2.3c2.1-0.4,4.1-0.8,5.9-2.1
		c2.2-1.6,3.5-5.9,5-8.4c1.3-2.3,3.1-5.6,4.8-7.9C52.3,24.5,52.4,23.2,52.4,23.2z M5.4,30.9c0.3-1.3,0.5-2.7,0.9-3.9l2.3,5.4
		C7.5,31.8,6.5,31.3,5.4,30.9 M10.5,33.6L7,25.3c0.1-0.3,0.3-0.5,0.5-0.7c1.1,0,2.3,0.2,3.4,0.6l4.5,12.5
		C13.9,36.2,12.2,34.8,10.5,33.6 M18.1,40.4L13,26.1c0.6,0.3,1.2,0.7,1.8,1.1c1,0.6,1.9,1.4,2.8,2.2L22,43.7
		C20.6,42.9,19.4,41.6,18.1,40.4 M24.8,44.8c-0.3,0-0.6-0.1-0.9-0.2l-4-13.2c0.9,0.9,1.7,1.7,2.5,2.3c0.6,0.6,1.3,1.2,2,1.9l1.9,7.4
		C25.9,43.6,25.4,44.3,24.8,44.8 M27.8,39.1c-0.3,0.8-0.5,1.6-0.8,2.3L25.9,37c0.7,0.6,1.3,1.2,2,1.8C27.9,38.9,27.9,39,27.8,39.1
		 M31.1,38.1c0.6-1.5,1.2-3.2,1.8-4.9l1.2,7.6C33,40.1,32.1,39.1,31.1,38.1 M35.4,41.6L35.4,41.6l-1.6-11.2c0.7-2.1,1.5-4.2,2.4-6.1
		l1.9,17.6C37.1,42,36.2,41.9,35.4,41.6 M39.7,40.9l-2-19.2c0.9-1.3,1.9-2.6,3.1-3.6l1.2,19.6C41.4,38.9,40.8,39.9,39.7,40.9
		 M43.4,34.1l-1-16.9c1.3,0.3,2.5,0.9,3.7,1.8l0.1,10.4C45.2,30.9,44.2,32.4,43.4,34.1 M50.5,23L50.5,23c-1,1.5-2,2.9-3,4.3
		l-0.1-7.3C48.5,21,49.5,22.1,50.5,23C50.6,23,50.5,23,50.5,23"/>
</g>
</svg>
