<?xml version="1.0" encoding="utf-8"?>
<!--Generator: Adobe Illustrator 15.0.2, SVG Export Plug-In . SVG Version: 6.00 Build 0)-->
<!DOCTYPE svg PUBLIC "-//W3C//DTD SVG 1.1//EN" "http://www.w3.org/Graphics/SVG/1.1/DTD/svg11.dtd">
<svg xmlns="http://www.w3.org/2000/svg" xmlns:xlink="http://www.w3.org/1999/xlink" id="Layer_1" width="104.438px" height="65.406px" x="0px" y="0px" enable-background="new 0 0 104.438 65.406" version="1.1" viewBox="0 0 104.438 65.406" xml:space="preserve">
    <g>
        <g>
            <defs>
                <rect id="SVGID_1_" width="58.5" height="55.289" x="22.969" y="5.059"/>
            </defs>
            <clipPath id="SVGID_2_">
                <use overflow="visible" xlink:href="#SVGID_1_"/>
            </clipPath>
            <path fill="#4C4B4D" d="M34.531,53.002c0,0-5.044-17.302,16.811-21.154
			c0,0,18.703-2.479,18.568,21.154c0,0-1.354,7.711-8.853,3.589c0,0-4.331-5.888-10.392-4.188c0,0-4.563,1.542-7.566,6.515
			C43.1,58.917,37.201,64.799,34.531,53.002" clip-path="url(#SVGID_2_)"/>
        </g>
        <path fill="#4C4B4D" d="M50.544,15.106c-0.8,5.526-2.147,10.463-6.362,10.997c-4.215,0.533-8.199-3.528-8.9-9.068
		c-0.7-5.541,2.148-10.464,6.363-10.997S51.535,8.243,50.544,15.106"/>
        <g>
            <defs>
                <rect id="SVGID_3_" width="58.5" height="55.289" x="22.969" y="5.059"/>
            </defs>
            <clipPath id="SVGID_4_">
                <use overflow="visible" xlink:href="#SVGID_3_"/>
            </clipPath>
            <path fill="#4C4B4D" d="M69.23,16.047c0,6.068-3.575,10.987-7.983,10.987s-7.722-5.583-7.983-10.987
			C52.97,9.985,56.839,5.059,61.247,5.059S69.23,9.978,69.23,16.047" clip-path="url(#SVGID_4_)"/>
            <path fill="#4C4B4D" d="M81.469,30.01c0,4.737-3.23,7.181-6.902,8.577
			c-3.564,1.357-6.904-3.84-6.904-8.577c0-4.735,3.156-7.881,6.904-8.577C78.673,20.671,81.469,25.274,81.469,30.01" clip-path="url(#SVGID_4_)"/>
            <path fill="#4C4B4D" d="M22.969,30.01c0,4.737,3.229,7.181,6.903,8.577
			c3.563,1.357,6.903-3.84,6.903-8.577c0-4.735-3.156-7.881-6.903-8.577C25.766,20.671,22.969,25.274,22.969,30.01" clip-path="url(#SVGID_4_)"/>
        </g>
    </g>
</svg>
