<?xml version="1.0" encoding="utf-8"?>
<!-- Generator: Adobe Illustrator 22.0.1, SVG Export Plug-In . SVG Version: 6.00 Build 0)  -->
<svg version="1.1" id="Layer_1" xmlns="http://www.w3.org/2000/svg" xmlns:xlink="http://www.w3.org/1999/xlink" x="0px" y="0px"
	 viewBox="0 0 498.5 286.7" style="enable-background:new 0 0 498.5 286.7;" xml:space="preserve">
<style type="text/css">
	.st0{fill:#FFFFFF;}
</style>
<title>CONTINUUM</title>
<g id="_x39_2b22d3d-22b6-401d-8e92-0855cd5c8f7a">
	<path class="st0" d="M43.2,244.9c-0.9,1.3-1.9,2.4-3,3.5c-1.2,1.1-2.6,2.1-4,2.9c-1.6,0.9-3.3,1.5-5,2c-2,0.5-4,0.7-6,0.7
		c-3.5,0-6.9-0.6-10.1-1.9c-3-1.2-5.7-3-8-5.3c-2.3-2.3-4-5-5.2-8c-1.3-3.2-2-6.7-1.9-10.2c0-3.5,0.6-6.9,1.9-10.2
		c2.4-6.1,7.2-10.9,13.3-13.3c3.2-1.3,6.6-1.9,10-1.9c1.8,0,3.5,0.2,5.2,0.6c1.7,0.4,3.3,0.9,4.8,1.6c1.5,0.6,2.8,1.5,4.1,2.4
		c1.2,0.9,2.2,2,3.1,3.2l-4.1,3c-0.6-0.9-1.2-1.6-2-2.3c-0.9-0.8-1.9-1.5-3-2c-1.2-0.6-2.4-1.1-3.7-1.4c-1.4-0.4-2.9-0.6-4.3-0.5
		c-2.9-0.1-5.8,0.5-8.4,1.7c-2.4,1.1-4.5,2.6-6.3,4.6c-1.7,2-3.1,4.2-3.9,6.7c-0.9,2.6-1.4,5.3-1.4,8c0,2.7,0.5,5.4,1.4,8
		c0.9,2.5,2.2,4.7,4,6.7c1.8,2,3.9,3.5,6.3,4.6c2.6,1.2,5.5,1.7,8.4,1.7c2.7,0,5.4-0.6,7.9-1.7c2.6-1.2,4.7-3.1,6.3-5.5L43.2,244.9z
		"/>
	<path class="st0" d="M107.5,228.6c0,3.5-0.6,6.9-1.9,10.2c-2.4,6.1-7.2,10.9-13.3,13.3c-6.4,2.5-13.6,2.5-20,0
		c-6-2.4-10.8-7.2-13.3-13.3c-2.6-6.5-2.6-13.8,0-20.3c2.4-6.1,7.2-10.9,13.3-13.3c6.4-2.5,13.6-2.5,20,0c6,2.4,10.8,7.2,13.3,13.3
		C106.9,221.7,107.6,225.1,107.5,228.6z M102.3,228.6c0-2.7-0.5-5.4-1.4-8c-0.9-2.5-2.2-4.8-4-6.7c-1.8-2-3.9-3.5-6.3-4.6
		c-5.3-2.3-11.4-2.3-16.7,0c-2.4,1.1-4.5,2.6-6.3,4.6c-1.8,2-3.1,4.2-4,6.7c-1.8,5.2-1.8,10.9,0,16.1c0.9,2.5,2.2,4.7,4,6.7
		c1.8,1.9,4,3.5,6.4,4.6c5.3,2.3,11.4,2.3,16.7,0c2.4-1.1,4.5-2.6,6.3-4.6c1.8-1.9,3.1-4.2,4-6.7
		C101.9,234.1,102.4,231.4,102.3,228.6L102.3,228.6z"/>
	<path class="st0" d="M162.2,245.6h0.1v-41.1h5.1v48.3H161l-29.4-41.5h-0.1v41.5h-5.1v-48.3h6.4L162.2,245.6z"/>
	<path class="st0" d="M206.6,252.8h-4.9v-43.9h-16.2v-4.4h37.2v4.4h-16.2V252.8z"/>
	<path class="st0" d="M247,252.8h-4.9v-48.3h4.9V252.8z"/>
	<path class="st0" d="M305,245.6h0.1v-41.1h5.1v48.3h-6.4l-29.2-41.5h-0.1v41.5h-5.1v-48.3h6.4L305,245.6z"/>
	<path class="st0" d="M411.3,254c-3.4,0.1-6.8-0.5-10-1.9c-2.4-1.1-4.5-2.7-6.2-4.7c-1.5-1.8-2.6-4-3.2-6.2
		c-0.6-2.1-0.9-4.2-0.9-6.4v-30.3h5.5v29.7c0,1.9,0.2,3.8,0.8,5.7c0.5,1.8,1.3,3.5,2.5,4.9c1.2,1.5,2.8,2.7,4.6,3.5
		c4.5,1.8,9.5,1.8,13.9,0c1.8-0.8,3.3-2,4.6-3.5c1.2-1.5,2-3.1,2.5-4.9c0.5-1.9,0.8-3.8,0.8-5.7v-29.7h5.5v30.3
		c0,2.2-0.3,4.3-0.9,6.4c-0.6,2.3-1.7,4.4-3.2,6.2c-1.7,2-3.8,3.7-6.2,4.7C418.2,253.5,414.7,254.1,411.3,254z"/>
	<path class="st0" d="M351,254c-3.4,0.1-6.8-0.5-10-1.9c-2.4-1.1-4.5-2.7-6.2-4.7c-1.5-1.8-2.6-4-3.2-6.2c-0.6-2.1-0.9-4.2-0.9-6.4
		v-30.3h5.5v29.7c0,1.9,0.3,3.8,0.8,5.7c0.5,1.8,1.3,3.5,2.5,4.9c1.2,1.5,2.7,2.7,4.5,3.5c4.5,1.8,9.5,1.8,13.9,0
		c1.8-0.8,3.3-2,4.6-3.5c1.2-1.4,2-3.1,2.5-4.9c0.5-1.9,0.8-3.8,0.8-5.7v-29.7h5.5v30.3c0,2.2-0.3,4.3-0.9,6.4
		c-0.6,2.3-1.7,4.4-3.2,6.2c-1.7,2-3.8,3.7-6.2,4.7C357.8,253.5,354.4,254.1,351,254z"/>
	<path class="st0" d="M475.6,229.5L475.6,229.5l15.7-25h7.2v48.3h-4.7v-42h-0.1l-16.9,27h-2.5l-16.9-27h-0.1v42h-4.8v-48.3h7.2
		L475.6,229.5z"/>
	<path class="st0" d="M146,268.1h5.5c0.7,0,1.4,0.1,2.1,0.2c0.7,0.1,1.3,0.4,1.9,0.8c0.6,0.4,1.1,0.9,1.4,1.5
		c0.4,0.7,0.6,1.5,0.5,2.3c0,0.9-0.3,1.8-0.9,2.6c-0.6,0.7-1.5,1.2-2.4,1.4v0c1.1,0.1,2.2,0.6,3,1.4c0.8,0.9,1.3,2,1.2,3.2
		c0,1.5-0.7,2.9-1.9,3.7c-0.7,0.5-1.4,0.8-2.2,1c-0.9,0.3-1.9,0.4-2.9,0.4H146V268.1z M147.9,276.3h3.8c0.5,0,0.9-0.1,1.4-0.2
		c0.5-0.1,0.9-0.3,1.3-0.5c0.4-0.2,0.7-0.6,0.9-1c0.3-0.5,0.4-1,0.4-1.5c0-0.5-0.1-1-0.4-1.5c-0.2-0.4-0.6-0.7-0.9-1
		c-0.4-0.3-0.9-0.5-1.4-0.6c-0.6-0.1-1.1-0.2-1.7-0.2h-3.3V276.3z M147.9,285.1h3.5c0.7,0,1.3-0.1,1.9-0.2c0.6-0.1,1.1-0.3,1.6-0.6
		c0.5-0.3,0.8-0.7,1.1-1.1c0.8-1.5,0.4-3.3-0.8-4.4c-1-0.7-2.3-1-3.5-0.9h-3.9L147.9,285.1z"/>
	<path class="st0" d="M169.4,286.7h-1.9v-18.6h1.9V286.7z"/>
	<path class="st0" d="M195.3,277.4c0,1.2-0.2,2.4-0.7,3.5c-0.8,2.1-2.5,3.8-4.6,4.6c-2.2,0.9-4.7,0.9-6.9,0
		c-2.1-0.8-3.7-2.5-4.6-4.6c-0.9-2.3-0.9-4.7,0-7c0.8-2.1,2.5-3.8,4.6-4.6c2.2-0.9,4.7-0.9,6.9,0c2.1,0.8,3.7,2.5,4.6,4.6
		C195.1,275,195.3,276.2,195.3,277.4z M193.5,277.4c0-0.9-0.2-1.9-0.5-2.8c-0.3-0.9-0.8-1.6-1.4-2.3c-0.6-0.7-1.3-1.2-2.2-1.6
		c-1.8-0.8-3.9-0.8-5.8,0c-0.8,0.4-1.6,0.9-2.2,1.6c-0.6,0.7-1.1,1.5-1.4,2.3c-0.3,0.9-0.5,1.8-0.5,2.8c0,0.9,0.2,1.9,0.5,2.8
		c0.3,0.9,0.8,1.6,1.4,2.3c0.6,0.7,1.4,1.2,2.2,1.6c1.8,0.8,3.9,0.8,5.8,0c0.8-0.4,1.6-0.9,2.2-1.6c0.6-0.7,1.1-1.5,1.4-2.3
		C193.3,279.3,193.5,278.4,193.5,277.4L193.5,277.4z"/>
	<path class="st0" d="M212.1,272c-0.4-0.5-1-0.9-1.6-1.2c-1.2-0.5-2.5-0.6-3.7-0.3c-0.5,0.1-0.9,0.3-1.3,0.6c-0.4,0.3-0.7,0.6-0.9,1
		c-0.2,0.4-0.4,0.9-0.4,1.4c0,0.5,0.1,0.9,0.3,1.3c0.2,0.4,0.5,0.7,0.9,0.9c0.4,0.3,0.8,0.5,1.3,0.6l1.5,0.5
		c0.6,0.2,1.3,0.4,1.9,0.6c0.6,0.2,1.2,0.5,1.8,0.9c0.5,0.3,1,0.8,1.3,1.3c0.3,0.6,0.5,1.3,0.5,2c0,0.7-0.2,1.5-0.5,2.1
		c-0.3,0.6-0.8,1.1-1.4,1.5c-0.6,0.4-1.2,0.7-1.9,0.9c-0.7,0.2-1.5,0.3-2.2,0.3c-0.6,0-1.1-0.1-1.7-0.2c-0.5-0.1-1.1-0.2-1.6-0.5
		c-0.5-0.2-1-0.5-1.4-0.8c-0.4-0.3-0.8-0.7-1.1-1.1l1.6-1.1c0.4,0.6,1,1.1,1.7,1.5c0.8,0.4,1.7,0.6,2.6,0.6c0.5,0,1-0.1,1.4-0.2
		c0.5-0.1,0.9-0.3,1.3-0.6c0.4-0.3,0.7-0.6,1-1c0.3-0.4,0.4-0.9,0.4-1.4c0-0.5-0.1-1-0.4-1.4c-0.3-0.4-0.6-0.7-1-1
		c-0.4-0.3-0.9-0.5-1.4-0.6c-0.5-0.2-1.1-0.4-1.7-0.5s-1.2-0.4-1.8-0.6c-0.6-0.2-1.1-0.5-1.6-0.9c-0.5-0.3-0.9-0.8-1.1-1.3
		c-0.6-1.3-0.6-2.7,0.1-4c0.4-0.6,0.8-1.1,1.4-1.4c0.6-0.4,1.2-0.7,1.9-0.8c0.7-0.2,1.4-0.3,2.1-0.3c1.1,0,2.2,0.2,3.2,0.6
		c0.8,0.3,1.4,0.8,2,1.4L212.1,272z"/>
	<path class="st0" d="M236.3,283.2c-0.3,0.4-0.6,0.8-1,1.2c-0.4,0.4-0.9,0.7-1.4,1c-0.5,0.3-1.1,0.5-1.7,0.7c-0.7,0.2-1.3,0.2-2,0.2
		c-1.2,0-2.3-0.2-3.4-0.6c-1-0.4-1.9-1-2.7-1.8c-0.8-0.8-1.4-1.7-1.8-2.7c-0.4-1.1-0.6-2.3-0.6-3.5c0-1.2,0.2-2.4,0.6-3.5
		c0.4-1,1-1.9,1.8-2.7c0.8-0.8,1.7-1.4,2.7-1.8c1.6-0.7,3.4-0.8,5.2-0.5c0.6,0.1,1.1,0.3,1.6,0.5c0.5,0.2,1,0.5,1.4,0.8
		c0.4,0.3,0.7,0.7,1,1.1l-1.4,1c-0.2-0.3-0.4-0.6-0.7-0.8c-0.3-0.3-0.6-0.5-1-0.7c-0.4-0.2-0.8-0.4-1.3-0.5c-0.5-0.1-1-0.2-1.5-0.2
		c-1,0-2,0.2-2.9,0.6c-0.8,0.4-1.6,0.9-2.1,1.6c-0.6,0.7-1.1,1.5-1.4,2.3c-0.3,0.9-0.5,1.8-0.5,2.7c0,0.9,0.2,1.8,0.5,2.7
		c0.3,0.8,0.8,1.6,1.4,2.3c0.6,0.7,1.3,1.2,2.1,1.6c0.9,0.4,1.9,0.6,2.8,0.6c0.9,0,1.8-0.2,2.7-0.6c0.9-0.4,1.6-1,2.1-1.9
		L236.3,283.2z"/>
	<path class="st0" d="M245.7,285.9h-1.7v-16.4h1.7V285.9z"/>
	<path class="st0" d="M256.9,284.4h8.8v1.5h-10.4v-16.4h10.2v1.5h-8.5v5.6h7.9v1.5h-7.9V284.4z"/>
	<path class="st0" d="M287,283.5L287,283.5v-14h1.7v16.4h-2.1l-9.5-14.1l0,0v14.1h-1.7v-16.4h2.1L287,283.5z"/>
	<path class="st0" d="M312.1,283.2c-0.3,0.4-0.6,0.8-1,1.2c-0.4,0.4-0.9,0.7-1.4,1c-0.5,0.3-1.1,0.5-1.7,0.7c-0.7,0.2-1.4,0.3-2,0.2
		c-1.2,0-2.3-0.2-3.4-0.6c-1-0.4-1.9-1-2.7-1.8c-0.8-0.8-1.4-1.7-1.8-2.7c-0.4-1.1-0.6-2.3-0.6-3.5c0-1.2,0.2-2.4,0.6-3.5
		c0.8-2.1,2.5-3.7,4.5-4.5c1.6-0.7,3.4-0.8,5.2-0.5c0.6,0.1,1.1,0.3,1.6,0.5c0.5,0.2,1,0.5,1.4,0.8c0.4,0.3,0.7,0.7,1,1.1l-1.4,1
		c-0.2-0.3-0.4-0.6-0.7-0.8c-0.3-0.3-0.6-0.5-1-0.7c-0.4-0.2-0.8-0.4-1.3-0.5c-0.5-0.1-1-0.2-1.5-0.2c-1,0-2,0.2-2.9,0.6
		c-0.8,0.4-1.5,0.9-2.1,1.6c-0.6,0.7-1,1.4-1.3,2.3c-0.3,0.9-0.5,1.8-0.5,2.7c0,0.9,0.2,1.8,0.5,2.7c0.3,0.8,0.8,1.6,1.4,2.3
		c0.6,0.7,1.3,1.2,2.1,1.6c0.9,0.4,1.9,0.6,2.8,0.6c0.9,0,1.8-0.2,2.7-0.6c0.9-0.4,1.6-1,2.1-1.9L312.1,283.2z"/>
	<path class="st0" d="M322,284.4h8.8v1.5h-10.5v-16.4h10.2v1.5H322v5.6h8v1.5h-8V284.4z"/>
	<path class="st0" d="M348.4,272.1c-0.4-0.5-0.8-0.9-1.4-1.2c-1-0.5-2.2-0.6-3.2-0.3c-0.4,0.1-0.8,0.3-1.1,0.6
		c-0.3,0.3-0.6,0.6-0.8,1c-0.2,0.4-0.3,0.9-0.3,1.4c0,0.4,0.1,0.9,0.3,1.3c0.2,0.3,0.5,0.6,0.8,0.9c0.3,0.2,0.7,0.4,1.1,0.6l1.3,0.5
		c0.6,0.2,1.1,0.4,1.7,0.6c0.6,0.2,1.1,0.5,1.6,0.8c0.5,0.4,0.9,0.8,1.1,1.3c0.3,0.6,0.5,1.3,0.4,2c0,0.7-0.1,1.5-0.5,2.1
		c-0.3,0.6-0.7,1.1-1.2,1.5c-0.5,0.4-1.1,0.7-1.7,0.9c-0.6,0.2-1.3,0.3-1.9,0.3c-0.5,0-1-0.1-1.5-0.2c-0.5-0.1-1-0.2-1.4-0.4
		c-0.4-0.2-0.9-0.5-1.2-0.8c-0.4-0.3-0.7-0.7-1-1.1l1.4-1.1c0.4,0.6,0.9,1.1,1.5,1.5c0.7,0.4,1.5,0.6,2.3,0.6c0.4,0,0.9-0.1,1.3-0.2
		c0.4-0.1,0.8-0.3,1.2-0.6c0.4-0.3,0.6-0.6,0.9-1c0.2-0.4,0.3-0.9,0.3-1.4c0-0.5-0.1-1-0.3-1.4c-0.2-0.4-0.5-0.7-0.9-1
		c-0.4-0.3-0.8-0.5-1.3-0.6c-0.5-0.2-1-0.3-1.5-0.5s-1.1-0.4-1.6-0.6c-0.5-0.2-1-0.5-1.4-0.9c-0.4-0.4-0.8-0.8-1-1.3
		c-0.3-0.6-0.4-1.2-0.4-1.9c0-0.7,0.2-1.4,0.5-2c0.3-0.6,0.7-1,1.2-1.4c0.5-0.4,1.1-0.6,1.7-0.8c0.6-0.2,1.2-0.3,1.8-0.3
		c1,0,2,0.2,2.9,0.6c0.7,0.3,1.3,0.8,1.8,1.4L348.4,272.1z"/>
	<path class="st0" d="M318.4,79.9c13.8-26.4,3.9-59-22.2-73.3C270.8-7.2,240,1.3,224.6,25.9c-30.1,1.4-53.3,27-51.9,57.1
		c1.3,28.3,24.1,50.9,52.4,51.9c15.9,24.5,48.3,32.2,73.6,17.4C324,137.4,332.4,106,318.4,79.9z M229.9,127.5
		c-9.9-19.7-12.6-43-10.4-63.2c1.8-10.7,5-21.1,9.5-31c24.3,1.8,47.9,13.4,64.5,27.5c6.3,5.9,11.9,12.4,16.8,19.4
		c-0.2,0.4-0.4,0.7-0.7,1.1c-10.7,15-27.2,28.2-44.5,36.8C253.9,123,242,126.2,229.9,127.5z M270.4,6.8c7.9,0,15.6,2,22.5,5.8
		c21.5,11.8,30.6,37.9,21.2,60.5c-4.8-6.6-10.5-12.6-16.8-17.8c-6.9-6.3-14.4-11.7-22.5-16.3c-13.6-7.6-28.3-12.1-42-13
		C241.5,14,255.5,6.9,270.4,6.8z M179.8,80.4c0-23.7,17.4-43.8,40.9-47.3c-4.2,9.7-6.9,20.1-7.9,30.7c-1.1,7.1-1.6,14.3-1.5,21.5
		c0.3,15.4,3.8,30.3,9.7,42.5C197.5,124.4,179.9,104.2,179.8,80.4z M295.2,146.4c-20.7,12.1-47.1,7.1-61.9-11.8
		c12.5-1.1,26-5.5,38.9-12.4c3.9-1.9,7.6-4,11.3-6.2c12.6-8,23.3-18.1,30.7-29.1C323.8,108.9,316.1,134.2,295.2,146.4L295.2,146.4z"
		/>
</g>
</svg>
